<?xml version="1.0" encoding="UTF-8" standalone="no"?>
<!-- Created with Inkscape (http://www.inkscape.org/) -->

<svg
   xmlns:dc="http://purl.org/dc/elements/1.1/"
   xmlns:cc="http://creativecommons.org/ns#"
   xmlns:rdf="http://www.w3.org/1999/02/22-rdf-syntax-ns#"
   xmlns:svg="http://www.w3.org/2000/svg"
   xmlns="http://www.w3.org/2000/svg"
   xmlns:sodipodi="http://sodipodi.sourceforge.net/DTD/sodipodi-0.dtd"
   xmlns:inkscape="http://www.inkscape.org/namespaces/inkscape"
   width="48"
   height="48"
   viewBox="0 0 48 48"
   id="svg2"
   version="1.1"
   inkscape:version="0.91 r13725"
   sodipodi:docname="ic_info_carpool.svg">
  <defs
     id="defs4" />
  <sodipodi:namedview
     id="base"
     pagecolor="#ffffff"
     bordercolor="#666666"
     borderopacity="1.0"
     inkscape:pageopacity="0.0"
     inkscape:pageshadow="2"
     inkscape:zoom="16.666667"
     inkscape:cx="24"
     inkscape:cy="24"
     inkscape:document-units="px"
     inkscape:current-layer="layer1"
     showgrid="true"
     units="px"
     showguides="true"
     inkscape:guide-bbox="true"
     inkscape:window-width="1920"
     inkscape:window-height="1006"
     inkscape:window-x="0"
     inkscape:window-y="24"
     inkscape:window-maximized="1"
     inkscape:object-paths="true"
     inkscape:snap-bbox="true"
     inkscape:bbox-paths="false"
     inkscape:bbox-nodes="true"
     inkscape:object-nodes="true"
     inkscape:snap-smooth-nodes="true"
     inkscape:snap-nodes="false"
     inkscape:snap-object-midpoints="false"
     inkscape:snap-intersection-paths="true"
     inkscape:snap-midpoints="true"
     inkscape:snap-others="false"
     inkscape:snap-grids="true"
     inkscape:snap-to-guides="false">
    <inkscape:grid
       type="xygrid"
       id="grid4136"
       spacingx="1"
       spacingy="1"
       empspacing="8" />
    <sodipodi:guide
       position="8,0"
       orientation="1,0"
       id="guide4138"
       inkscape:label=""
       inkscape:color="rgb(0,0,255)" />
    <sodipodi:guide
       position="40,0"
       orientation="1,0"
       id="guide4140"
       inkscape:label=""
       inkscape:color="rgb(0,0,255)" />
    <sodipodi:guide
       position="17,0"
       orientation="1,0"
       id="guide4142"
       inkscape:label=""
       inkscape:color="rgb(0,0,255)" />
    <sodipodi:guide
       position="31,0"
       orientation="1,0"
       id="guide4144"
       inkscape:label=""
       inkscape:color="rgb(0,0,255)" />
    <sodipodi:guide
       position="24,0"
       orientation="1,0"
       id="guide4146"
       inkscape:label=""
       inkscape:color="rgb(0,0,255)" />
    <sodipodi:guide
       position="0,8"
       orientation="0,1"
       id="guide4148"
       inkscape:label=""
       inkscape:color="rgb(0,0,255)" />
    <sodipodi:guide
       position="0,40"
       orientation="0,1"
       id="guide4150"
       inkscape:label=""
       inkscape:color="rgb(0,0,255)" />
    <sodipodi:guide
       position="0,31"
       orientation="0,1"
       id="guide4152"
       inkscape:label=""
       inkscape:color="rgb(0,0,255)" />
    <sodipodi:guide
       position="0,17"
       orientation="0,1"
       id="guide4154"
       inkscape:label=""
       inkscape:color="rgb(0,0,255)" />
    <sodipodi:guide
       position="0,24"
       orientation="0,1"
       id="guide4156"
       inkscape:label=""
       inkscape:color="rgb(0,0,255)" />
    <sodipodi:guide
       position="0,0"
       orientation="-0.70710678,0.70710678"
       id="guide4158"
       inkscape:label=""
       inkscape:color="rgb(0,0,255)" />
    <sodipodi:guide
       position="0,48"
       orientation="0.70710678,0.70710678"
       id="guide4160"
       inkscape:label=""
       inkscape:color="rgb(0,0,255)" />
  </sodipodi:namedview>
  <metadata
     id="metadata7">
    <rdf:RDF>
      <cc:Work
         rdf:about="">
        <dc:format>image/svg+xml</dc:format>
        <dc:type
           rdf:resource="http://purl.org/dc/dcmitype/StillImage" />
        <dc:title />
      </cc:Work>
    </rdf:RDF>
  </metadata>
  <g
     inkscape:label="Layer 1"
     inkscape:groupmode="layer"
     id="layer1"
     transform="translate(0,-1004.3622)">
    <rect
       style="opacity:1;fill:#ffffff;fill-opacity:1;stroke:none;stroke-width:2;stroke-linejoin:round;stroke-miterlimit:4;stroke-dasharray:none;stroke-dashoffset:0;stroke-opacity:1"
       id="rect4184"
       width="44"
       height="44"
       x="2"
       y="1006.3622"
       rx="3"
       ry="3" />
    <path
       id="path4233"
       d="m 23.997272,1019.9986 c -0.905453,0 -1.630908,-0.7309 -1.630908,-1.6364 0,-0.9055 0.725455,-1.6364 1.630908,-1.6364 0.905455,0 1.636365,0.7309 1.636365,1.6364 0,0.9055 -0.73091,1.6364 -1.636365,1.6364 z m -1.77e-4,2.3968 c -0.05795,0.1886 -0.09375,0.3885 -0.09375,0.6035 l 0,1.3633 0.1875,0 0,-1.3633 c 0,-0.2153 -0.03566,-0.4147 -0.09375,-0.6035 z"
       inkscape:connector-curvature="0" />
    <path
       inkscape:connector-curvature="0"
       d="m 37.84,1014.3822 c -0.41,-1.18 -1.53,-2.02 -2.84,-2.02 l -22,0 c -1.31,0 -2.43,0.84 -2.84,2.02 l -4.16,11.98 0,16 c 0,1.1 0.9,2 2,2 l 2,0 c 1.11,0 2,-0.9 2,-2 l 0,-2 24,0 0,2 c 0,1.1 0.9,2 2,2 l 2,0 c 1.11,0 2,-0.9 2,-2 l 0,-16 -4.16,-11.98 z m -24.84,19.98 c -1.66,0 -3,-1.34 -3,-3 0,-1.66 1.34,-3 3,-3 1.66,0 3,1.34 3,3 0,1.66 -1.34,3 -3,3 z m 22,0 c -1.66,0 -3,-1.34 -3,-3 0,-1.66 1.34,-3 3,-3 1.66,0 3,1.34 3,3 0,1.66 -1.34,3 -3,3 z m -25,-10 3,-9 22,0 3,9 -28,0 z"
       id="path5376" />
    <path
       inkscape:connector-curvature="0"
       d="m 14.818182,1019.9986 c -0.905455,0 -1.630909,-0.7309 -1.630909,-1.6364 0,-0.9055 0.725454,-1.6364 1.630909,-1.6364 0.905454,0 1.636363,0.7309 1.636363,1.6364 0,0.9055 -0.730909,1.6364 -1.636363,1.6364 z m 4.363636,0 c -0.905454,0 -1.630909,-0.7309 -1.630909,-1.6364 0,-0.9055 0.725455,-1.6364 1.630909,-1.6364 0.905455,0 1.636364,0.7309 1.636364,1.6364 0,0.9055 -0.730909,1.6364 -1.636364,1.6364 z m 0,1.0909 c 1.270909,0 3.818182,0.6382 3.818182,1.9091 l 0,1.3636 -7.636364,0 0,-1.3636 c 0,-1.2709 2.547273,-1.9091 3.818182,-1.9091 z m -4.363636,0 c 0.158182,0 0.338182,0.011 0.529091,0.027 -0.632728,0.4582 -1.074546,1.0746 -1.074546,1.8819 l 0,1.3636 -3.272727,0 0,-1.3636 c 0,-1.2709 2.547273,-1.9091 3.818182,-1.9091 z"
       id="path6" />
    <path
       inkscape:connector-curvature="0"
       d="m 33.181818,1019.9986 c 0.905455,0 1.630909,-0.7309 1.630909,-1.6364 0,-0.9055 -0.725454,-1.6364 -1.630909,-1.6364 -0.905454,0 -1.636363,0.7309 -1.636363,1.6364 0,0.9055 0.730909,1.6364 1.636363,1.6364 z m -4.363636,0 c 0.905454,0 1.630909,-0.7309 1.630909,-1.6364 0,-0.9055 -0.725455,-1.6364 -1.630909,-1.6364 -0.905455,0 -1.636364,0.7309 -1.636364,1.6364 0,0.9055 0.730909,1.6364 1.636364,1.6364 z m 0,1.0909 c -1.270909,0 -3.818182,0.6382 -3.818182,1.9091 l 0,1.3636 7.636364,0 0,-1.3636 c 0,-1.2709 -2.547273,-1.9091 -3.818182,-1.9091 z m 4.363636,0 c -0.158182,0 -0.338182,0.011 -0.529091,0.027 0.632728,0.4582 1.074546,1.0746 1.074546,1.8819 l 0,1.3636 3.272727,0 0,-1.3636 c 0,-1.2709 -2.547273,-1.9091 -3.818182,-1.9091 z"
       id="path6-3" />
  </g>
</svg>
