<?xml version="1.0" encoding="UTF-8" standalone="no"?>
<!-- Created with Inkscape (http://www.inkscape.org/) -->

<svg
   xmlns:dc="http://purl.org/dc/elements/1.1/"
   xmlns:cc="http://creativecommons.org/ns#"
   xmlns:rdf="http://www.w3.org/1999/02/22-rdf-syntax-ns#"
   xmlns:svg="http://www.w3.org/2000/svg"
   xmlns="http://www.w3.org/2000/svg"
   xmlns:sodipodi="http://sodipodi.sourceforge.net/DTD/sodipodi-0.dtd"
   xmlns:inkscape="http://www.inkscape.org/namespaces/inkscape"
   width="108"
   height="108"
   viewBox="0 0 28.574999 28.575001"
   version="1.1"
   id="svg8"
   inkscape:version="0.92.3 (2405546, 2018-03-11)"
   sodipodi:docname="ic_launcher_foreground.svg">
  <defs
     id="defs2" />
  <sodipodi:namedview
     id="base"
     pagecolor="#f44336"
     bordercolor="#666666"
     borderopacity="1.0"
     inkscape:pageopacity="0"
     inkscape:pageshadow="2"
     inkscape:zoom="5.6111111"
     inkscape:cx="-13.544554"
     inkscape:cy="54"
     inkscape:document-units="px"
     inkscape:current-layer="layer1"
     showgrid="true"
     units="px"
     showguides="true"
     inkscape:guide-bbox="true"
     inkscape:snap-page="true"
     inkscape:window-width="1600"
     inkscape:window-height="816"
     inkscape:window-x="0"
     inkscape:window-y="28"
     inkscape:window-maximized="1"
     inkscape:snap-others="true"
     inkscape:snap-bbox="true"
     inkscape:bbox-nodes="true"
     inkscape:bbox-paths="true"
     inkscape:object-nodes="true"
     inkscape:snap-nodes="true"
     inkscape:snap-to-guides="false"
     inkscape:snap-object-midpoints="false"
     inkscape:snap-center="false"
     inkscape:snap-bbox-edge-midpoints="false"
     inkscape:snap-bbox-midpoints="false"
     inkscape:object-paths="true"
     inkscape:snap-grids="true"
     inkscape:pagecheckerboard="false">
    <inkscape:grid
       type="xygrid"
       id="grid815"
       empspacing="8"
       originx="4.7625"
       originy="4.7625" />
    <sodipodi:guide
       position="4.7625,0"
       orientation="1,0"
       id="guide817"
       inkscape:locked="false"
       inkscape:label=""
       inkscape:color="rgb(0,0,255)" />
    <sodipodi:guide
       position="23.8125,0"
       orientation="1,0"
       id="guide819"
       inkscape:locked="false"
       inkscape:label=""
       inkscape:color="rgb(0,0,255)" />
    <sodipodi:guide
       position="0,4.7625"
       orientation="0,1"
       id="guide821"
       inkscape:locked="false"
       inkscape:label=""
       inkscape:color="rgb(0,0,255)" />
    <sodipodi:guide
       position="0,23.8125"
       orientation="0,1"
       id="guide823"
       inkscape:locked="false"
       inkscape:label=""
       inkscape:color="rgb(0,0,255)" />
  </sodipodi:namedview>
  <metadata
     id="metadata5">
    <rdf:RDF>
      <cc:Work
         rdf:about="">
        <dc:format>image/svg+xml</dc:format>
        <dc:type
           rdf:resource="http://purl.org/dc/dcmitype/StillImage" />
        <dc:title></dc:title>
      </cc:Work>
    </rdf:RDF>
  </metadata>
  <g
     inkscape:label="Layer 1"
     inkscape:groupmode="layer"
     id="layer1"
     transform="translate(0,-268.42498)">
    <path
       id="rect822"
       style="opacity:1;fill:#ffffff;fill-opacity:1;stroke:none;stroke-width:0.60132575;stroke-linejoin:round;stroke-miterlimit:4;stroke-dasharray:none;stroke-dashoffset:0;stroke-opacity:1"
       d="m 7.0715909,281.91873 v 0.80177 h 0.8017677 v 1.60353 h 1.6035353 v -1.60353 h 9.6212121 v 1.60353 h 1.603535 v -1.60353 h 0.801768 v -0.80177 z m 7.9111921,-6.61458 -1.046448,0.84248 -0.48153,-0.7912 -0.47879,0.78963 -1.09969,-0.81664 0.372305,1.10478 -7.82e-4,0.13428 2.41509,0.001 7.82e-4,-0.15542 z m -2.540758,1.60001 c -0.411549,0 -0.466564,0.55259 -1.221052,0.55865 H 10.65175 c -0.12748,0.36333 -0.239983,0.98896 -0.239983,1.26529 0,0.27635 0.109397,0.55233 0.143285,0.82448 0.334154,-0.28835 0.377942,-0.32729 0.570007,-0.32729 0.57615,0 1.261766,0.26272 1.261766,0.77397 0,0.14244 -0.239077,0.69753 -0.504628,1.07464 l -0.02075,0.0431 h 2.025168 0.801768 2.025168 l -0.02075,-0.0431 c -1.018424,-2.11555 -1.394418,-4.16974 -4.250778,-4.16974 z m -0.05872,0.60485 a 0.50110477,0.50110477 0 0 1 0.501104,0.5011 0.50110477,0.50110477 0 0 1 -0.501104,0.50111 0.50110477,0.50110477 0 0 1 -0.501105,-0.50111 0.50110477,0.50110477 0 0 1 0.501105,-0.5011 z m -1.685357,6.01326 -2.4237026,5.01104 h 5.2114896 l 0.27091,-5.01104 z m 4.120413,0 0.270909,5.01104 h 5.21149 l -2.423703,-5.01104 z"
       inkscape:connector-curvature="0" />
  </g>
</svg>
